…
首先需要导入库和设置主题：

```
# scatter plot
library(dplyr)
library(ggplot2)
theme_set(theme_minimal())
```

使用的数据集为starwars：

```
> starwars
# A tibble: 87 × 14
   name     height  mass hair_…¹ skin_…² eye_c…³ birth…⁴ sex  
   <chr>     <int> <dbl> <chr>   <chr>   <chr>     <dbl> <chr>
 1 Luke Sk…    172    77 blond   fair    blue       19   male 
 2 C-3PO       167    75 NA      gold    yellow    112   none 
 3 R2-D2        96    32 NA      white,… red        33   none 
 4 Darth V…    202   136 none    white   yellow     41.9 male 
 5 Leia Or…    150    49 brown   light   brown      19   fema…
 6 Owen La…    178   120 brown,… light   blue       52   male 
 7 Beru Wh…    165    75 brown   light   blue       47   fema…
 8 R5-D4        97    32 NA      white,… red        NA   none 
 9 Biggs D…    183    84 black   light   brown      24   male 
10 Obi-Wan…    182    77 auburn… fair    blue-g…    57   male 
# … with 77 more rows, 6 more variables: gender <chr>,
#   homeworld <chr>, species <chr>, films <list>,
#   vehicles <list>, starships <list>, and abbreviated
#   variable names ¹hair_color, ²skin_color, ³eye_color,
#   ⁴birth_year
# ℹ Use `print(n = ...)` to see more rows, and `colnames()` to see all variable names
```

首先我们只考虑人类，因为身高之类的变量对于机器人而言意义不大：

```
> humans <- filter(starwars, species == "Human")
> humans
# A tibble: 35 × 14
   name     height  mass hair_…¹ skin_…² eye_c…³ birth…⁴ sex  
   <chr>     <int> <dbl> <chr>   <chr>   <chr>     <dbl> <chr>
 1 Luke Sk…    172    77 blond   fair    blue       19   male 
 2 Darth V…    202   136 none    white   yellow     41.9 male 
 3 Leia Or…    150    49 brown   light   brown      19   fema…
 4 Owen La…    178   120 brown,… light   blue       52   male 
 5 Beru Wh…    165    75 brown   light   blue       47   fema…
 6 Biggs D…    183    84 black   light   brown      24   male 
 7 Obi-Wan…    182    77 auburn… fair    blue-g…    57   male 
 8 Anakin …    188    84 blond   fair    blue       41.9 male 
 9 Wilhuff…    180    NA auburn… fair    blue       64   male 
10 Han Solo    180    80 brown   fair    brown      29   male 
# … with 25 more rows, 6 more variables: gender <chr>,
#   homeworld <chr>, species <chr>, films <list>,
#   vehicles <list>, starships <list>, and abbreviated
#   variable names ¹hair_color, ²skin_color, ³eye_color,
#   ⁴birth_year
# ℹ Use `print(n = ...)` to see more rows, and `colnames()` to see all variable names
```

接着将NA值去除掉：

```
humans <- humans[!is.na(humans$mass), ]
humans

# A tibble: 22 × 14
   name     height  mass hair_…¹ skin_…² eye_c…³ birth…⁴ sex  
   <chr>     <int> <dbl> <chr>   <chr>   <chr>     <dbl> <chr>
 1 Luke Sk…    172    77 blond   fair    blue       19   male 
 2 Darth V…    202   136 none    white   yellow     41.9 male 
 3 Leia Or…    150    49 brown   light   brown      19   fema…
 4 Owen La…    178   120 brown,… light   blue       52   male 
 5 Beru Wh…    165    75 brown   light   blue       47   fema…
 6 Biggs D…    183    84 black   light   brown      24   male 
 7 Obi-Wan…    182    77 auburn… fair    blue-g…    57   male 
 8 Anakin …    188    84 blond   fair    blue       41.9 male 
 9 Han Solo    180    80 brown   fair    brown      29   male 
10 Wedge A…    170    77 brown   fair    hazel      21   male 
# … with 12 more rows, 6 more variables: gender <chr>,
#   homeworld <chr>, species <chr>, films <list>,
#   vehicles <list>, starships <list>, and abbreviated
#   variable names ¹hair_color, ²skin_color, ³eye_color,
#   ⁴birth_year
# ℹ Use `print(n = ...)` to see more rows, and `colnames()` to see all variable names
```
…
