…
这里安装和导入数据集：

```
library(babynames)
babynames
```

得到的结果为：

```
> babynames
# A tibble: 1,924,665 × 5
    year sex   name          n   prop
   <dbl> <chr> <chr>     <int>  <dbl>
 1  1880 F     Mary       7065 0.0724
 2  1880 F     Anna       2604 0.0267
 3  1880 F     Emma       2003 0.0205
 4  1880 F     Elizabeth  1939 0.0199
 5  1880 F     Minnie     1746 0.0179
 6  1880 F     Margaret   1578 0.0162
 7  1880 F     Ida        1472 0.0151
 8  1880 F     Alice      1414 0.0145
 9  1880 F     Bertha     1320 0.0135
10  1880 F     Sarah      1288 0.0132
# … with 1,924,655 more rows
# ℹ Use `print(n = ...)` to see more rows
```
然后我们开始进行操作：

```
# line family
library(babynames)
baby_df <- babynames

library(dplyr)

```

```
> anna <- filter(baby_df, name == "Anna")
> anna
# A tibble: 273 × 5
    year sex   name      n     prop
   <dbl> <chr> <chr> <int>    <dbl>
 1  1880 F     Anna   2604 0.0267  
 2  1880 M     Anna     12 0.000101
 3  1881 F     Anna   2698 0.0273  
 4  1881 M     Anna     16 0.000148
 5  1882 F     Anna   3143 0.0272  
 6  1883 F     Anna   3306 0.0275  
 7  1883 M     Anna     16 0.000142
 8  1884 F     Anna   3860 0.0281  
 9  1884 M     Anna     20 0.000163
10  1885 F     Anna   3994 0.0281  
# … with 263 more rows
# ℹ Use `print(n = ...)` to see more rows
```

我们得到了所有名为Anna的结果，但是这里我们需要的是女性，也就是所有sex被标记为F的Anna：

```
> anna
# A tibble: 138 × 5
    year sex   name      n   prop
   <dbl> <chr> <chr> <int>  <dbl>
 1  1880 F     Anna   2604 0.0267
 2  1881 F     Anna   2698 0.0273
 3  1882 F     Anna   3143 0.0272
 4  1883 F     Anna   3306 0.0275
 5  1884 F     Anna   3860 0.0281
 6  1885 F     Anna   3994 0.0281
 7  1886 F     Anna   4283 0.0279
 8  1887 F     Anna   4227 0.0272
 9  1888 F     Anna   4982 0.0263
10  1889 F     Anna   5062 0.0268
# … with 128 more rows
# ℹ Use `print(n = ...)` to see more rows
```
…
